.
…
Extracting factor scores

MR1: Postsale customer service

MR2: Marketing

MR3: Technical support

MR4: Product value

fa_varimax$scores %>% round(4) %>% data.frame() %>% tibble()

fa_varimax$scores %>% round(4) %>% data.frame() %>% tibble()
# A tibble: 100 × 4
      MR1    MR2    MR3     MR4
    <dbl>  <dbl>  <dbl>   <dbl>
 1 -0.139  0.940 -1.72   0.0968
 2  1.64  -2.04  -0.591  0.650 
 3  0.356  0.876  0.016  1.38  
 4 -1.22  -0.557  1.25  -0.646 
 5 -0.486 -0.421 -0.031  0.476 
 6 -0.592 -1.31  -1.20  -0.959 
 7 -2.54   0.417 -0.569 -1.30  
 8 -0.115 -0.118 -0.707 -1.36  
 9  0.952  0.372 -0.139 -0.929 
10  0.586  0.408 -0.462 -0.674 
# ℹ 90 more rows
…
